{
  "project_info": {
    "project_number": "970579281564",
    "firebase_url": "https://gcp-tutorial-289800.firebaseio.com",
    "project_id": "gcp-tutorial-289800",
    "storage_bucket": "gcp-tutorial-289800.appspot.com"
  },
  "client": [
    {
      "client_info": {
        "mobilesdk_app_id": "1:970579281564:android:def3022f6c428be5694f59",
        "android_client_info": {
          "package_name": "novan.seka.appx0e"
        }
      },
      "oauth_client": [
        {
          "client_id": "970579281564-1hokot6vmmnaklfko1m5ft2n467okf9u.apps.googleusercontent.com",
          "client_type": 3
        }
      ],
      "api_key": [
        {
          "current_key": "AIzaSyCkZlbNz4reFpppHqwrQmMsYw_I7SRaYAo"
        }
      ],
      "services": {
        "appinvite_service": {
          "other_platform_oauth_client": [
            {
              "client_id": "970579281564-1hokot6vmmnaklfko1m5ft2n467okf9u.apps.googleusercontent.com",
              "client_type": 3
            }
          ]
        }
      }
    },
    {
      "client_info": {
        "mobilesdk_app_id": "1:970579281564:android:29a6240c3f69691f694f59",
        "android_client_info": {
          "package_name": "nugraha.aditya.appx0d"
        }
      },
      "oauth_client": [
        {
          "client_id": "970579281564-1hokot6vmmnaklfko1m5ft2n467okf9u.apps.googleusercontent.com",
          "client_type": 3
        }
      ],
      "api_key": [
        {
          "current_key": "AIzaSyCkZlbNz4reFpppHqwrQmMsYw_I7SRaYAo"
        }
      ],
      "services": {
        "appinvite_service": {
          "other_platform_oauth_client": [
            {
              "client_id": "970579281564-1hokot6vmmnaklfko1m5ft2n467okf9u.apps.googleusercontent.com",
              "client_type": 3
            }
          ]
        }
      }
    },
    {
      "client_info": {
        "mobilesdk_app_id": "1:970579281564:android:5e06054ce2f03af3694f59",
        "android_client_info": {
          "package_name": "nugraha.aditya.appx0e"
        }
      },
      "oauth_client": [
        {
          "client_id": "970579281564-1hokot6vmmnaklfko1m5ft2n467okf9u.apps.googleusercontent.com",
          "client_type": 3
        }
      ],
      "api_key": [
        {
          "current_key": "AIzaSyCkZlbNz4reFpppHqwrQmMsYw_I7SRaYAo"
        }
      ],
      "services": {
        "appinvite_service": {
          "other_platform_oauth_client": [
            {
              "client_id": "970579281564-1hokot6vmmnaklfko1m5ft2n467okf9u.apps.googleusercontent.com",
              "client_type": 3
            }
          ]
        }
      }
    },
    {
      "client_info": {
        "mobilesdk_app_id": "1:970579281564:android:03bce23f452ec8b1694f59",
        "android_client_info": {
          "package_name": "nugraha.aditya.appx0fn"
        }
      },
      "oauth_client": [
        {
          "client_id": "970579281564-1hokot6vmmnaklfko1m5ft2n467okf9u.apps.googleusercontent.com",
          "client_type": 3
        }
      ],
      "api_key": [
        {
          "current_key": "AIzaSyCkZlbNz4reFpppHqwrQmMsYw_I7SRaYAo"
        }
      ],
      "services": {
        "appinvite_service": {
          "other_platform_oauth_client": [
            {
              "client_id": "970579281564-1hokot6vmmnaklfko1m5ft2n467okf9u.apps.googleusercontent.com",
              "client_type": 3
            }
          ]
        }
      }
    }
  ],
  "configuration_version": "1"
}